%YAML 1.1
%TAG !u! tag:unity3d.com,2011:
--- !u!114 &11400000
MonoBehaviour:
  m_ObjectHideFlags: 0
  m_CorrespondingSourceObject: {fileID: 0}
  m_PrefabInstance: {fileID: 0}
  m_PrefabAsset: {fileID: 0}
  m_GameObject: {fileID: 0}
  m_Enabled: 1
  m_EditorHideFlags: 0
  m_Script: {fileID: 11500000, guid: f016fa54d6471a1429eb2aef3c32632a, type: 3}
  m_Name: Spear
  m_EditorClassIdentifier: 
  name: Spear
  icon: {fileID: 21300012, guid: accaf23ed7a1e664db87dae72d0f8c22, type: 3}
  gameObject: {fileID: 5032604162187700414, guid: 7fef03de2d6633347925eed94847c550,
    type: 3}
  isDefaultItem: 0
