%YAML 1.1
%TAG !u! tag:unity3d.com,2011:
--- !u!114 &403174494
MonoBehaviour:
  m_ObjectHideFlags: 0
  m_CorrespondingSourceObject: {fileID: 0}
  m_PrefabInstance: {fileID: 0}
  m_PrefabAsset: {fileID: 0}
  m_GameObject: {fileID: 3703474973241860825}
  m_Enabled: 1
  m_EditorHideFlags: 0
  m_Script: {fileID: 11500000, guid: 93127ac92befe5347b74ff3d47c417da, type: 3}
  m_Name: 
  m_EditorClassIdentifier: 
  radius: 3
  interactionTransform: {fileID: 3703474973241860824}
  item: {fileID: 0}
  player: {fileID: 0}
  playerCam: {fileID: 0}
  damage: 0
  throwForce: 1000
--- !u!1001 &1680508029482120200
PrefabInstance:
  m_ObjectHideFlags: 0
  serializedVersion: 2
  m_Modification:
    m_TransformParent: {fileID: 0}
    m_Modifications:
    - target: {fileID: 2609624860344211153, guid: daba5c12ce75de24eb0edc09954a77d9,
        type: 3}
      propertyPath: m_Name
      value: Rock
      objectReference: {fileID: 0}
    - target: {fileID: 2609624860344211152, guid: daba5c12ce75de24eb0edc09954a77d9,
        type: 3}
      propertyPath: m_LocalPosition.x
      value: -10.72
      objectReference: {fileID: 0}
    - target: {fileID: 2609624860344211152, guid: daba5c12ce75de24eb0edc09954a77d9,
        type: 3}
      propertyPath: m_LocalPosition.y
      value: 5.4677825
      objectReference: {fileID: 0}
    - target: {fileID: 2609624860344211152, guid: daba5c12ce75de24eb0edc09954a77d9,
        type: 3}
      propertyPath: m_LocalPosition.z
      value: -17.56
      objectReference: {fileID: 0}
    - target: {fileID: 2609624860344211152, guid: daba5c12ce75de24eb0edc09954a77d9,
        type: 3}
      propertyPath: m_LocalRotation.x
      value: -0
      objectReference: {fileID: 0}
    - target: {fileID: 2609624860344211152, guid: daba5c12ce75de24eb0edc09954a77d9,
        type: 3}
      propertyPath: m_LocalRotation.y
      value: -0
      objectReference: {fileID: 0}
    - target: {fileID: 2609624860344211152, guid: daba5c12ce75de24eb0edc09954a77d9,
        type: 3}
      propertyPath: m_LocalRotation.z
      value: -0
      objectReference: {fileID: 0}
    - target: {fileID: 2609624860344211152, guid: daba5c12ce75de24eb0edc09954a77d9,
        type: 3}
      propertyPath: m_LocalRotation.w
      value: 1
      objectReference: {fileID: 0}
    - target: {fileID: 2609624860344211152, guid: daba5c12ce75de24eb0edc09954a77d9,
        type: 3}
      propertyPath: m_RootOrder
      value: 0
      objectReference: {fileID: 0}
    - target: {fileID: 2609624860344211152, guid: daba5c12ce75de24eb0edc09954a77d9,
        type: 3}
      propertyPath: m_LocalEulerAnglesHint.x
      value: 0
      objectReference: {fileID: 0}
    - target: {fileID: 2609624860344211152, guid: daba5c12ce75de24eb0edc09954a77d9,
        type: 3}
      propertyPath: m_LocalEulerAnglesHint.y
      value: 0
      objectReference: {fileID: 0}
    - target: {fileID: 2609624860344211152, guid: daba5c12ce75de24eb0edc09954a77d9,
        type: 3}
      propertyPath: m_LocalEulerAnglesHint.z
      value: 0
      objectReference: {fileID: 0}
    - target: {fileID: 2609624860344211152, guid: daba5c12ce75de24eb0edc09954a77d9,
        type: 3}
      propertyPath: m_LocalScale.y
      value: 0.4
      objectReference: {fileID: 0}
    - target: {fileID: 2609624860344211152, guid: daba5c12ce75de24eb0edc09954a77d9,
        type: 3}
      propertyPath: m_LocalScale.x
      value: 0.4
      objectReference: {fileID: 0}
    - target: {fileID: 2609624860344211152, guid: daba5c12ce75de24eb0edc09954a77d9,
        type: 3}
      propertyPath: m_LocalScale.z
      value: 0.4
      objectReference: {fileID: 0}
    - target: {fileID: 2609624860344211155, guid: daba5c12ce75de24eb0edc09954a77d9,
        type: 3}
      propertyPath: player
      value: 
      objectReference: {fileID: 0}
    - target: {fileID: 2609624860344211155, guid: daba5c12ce75de24eb0edc09954a77d9,
        type: 3}
      propertyPath: playerCam
      value: 
      objectReference: {fileID: 0}
    - target: {fileID: 2609624860344211155, guid: daba5c12ce75de24eb0edc09954a77d9,
        type: 3}
      propertyPath: camera
      value: 
      objectReference: {fileID: 0}
    - target: {fileID: 2609624860344211155, guid: daba5c12ce75de24eb0edc09954a77d9,
        type: 3}
      propertyPath: throwForce
      value: 200
      objectReference: {fileID: 0}
    - target: {fileID: 2609624860344211155, guid: daba5c12ce75de24eb0edc09954a77d9,
        type: 3}
      propertyPath: m_Enabled
      value: 0
      objectReference: {fileID: 0}
    - target: {fileID: 2609624860344211164, guid: daba5c12ce75de24eb0edc09954a77d9,
        type: 3}
      propertyPath: m_Materials.Array.data[0]
      value: 
      objectReference: {fileID: 2100000, guid: 2a9335107081e4344aaf8211c4ee0264, type: 2}
    - target: {fileID: 2609624860344211165, guid: daba5c12ce75de24eb0edc09954a77d9,
        type: 3}
      propertyPath: m_Enabled
      value: 1
      objectReference: {fileID: 0}
    - target: {fileID: 2762571944835302474, guid: daba5c12ce75de24eb0edc09954a77d9,
        type: 3}
      propertyPath: item
      value: 
      objectReference: {fileID: 11400000, guid: 3e959521c49479f49a482c03f0dcb51f,
        type: 2}
    m_RemovedComponents:
    - {fileID: 2600911657087276383, guid: daba5c12ce75de24eb0edc09954a77d9, type: 3}
    - {fileID: 2609624860344211155, guid: daba5c12ce75de24eb0edc09954a77d9, type: 3}
  m_SourcePrefab: {fileID: 100100000, guid: daba5c12ce75de24eb0edc09954a77d9, type: 3}
--- !u!1 &3703474973241860825 stripped
GameObject:
  m_CorrespondingSourceObject: {fileID: 2609624860344211153, guid: daba5c12ce75de24eb0edc09954a77d9,
    type: 3}
  m_PrefabInstance: {fileID: 1680508029482120200}
  m_PrefabAsset: {fileID: 0}
--- !u!4 &3703474973241860824 stripped
Transform:
  m_CorrespondingSourceObject: {fileID: 2609624860344211152, guid: daba5c12ce75de24eb0edc09954a77d9,
    type: 3}
  m_PrefabInstance: {fileID: 1680508029482120200}
  m_PrefabAsset: {fileID: 0}
--- !u!1001 &1680508030180651953
PrefabInstance:
  m_ObjectHideFlags: 0
  serializedVersion: 2
  m_Modification:
    m_TransformParent: {fileID: 3703474973241860824}
    m_Modifications:
    - target: {fileID: 2609624860344211153, guid: daba5c12ce75de24eb0edc09954a77d9,
        type: 3}
      propertyPath: m_Name
      value: Rock (1)
      objectReference: {fileID: 0}
    - target: {fileID: 2609624860344211152, guid: daba5c12ce75de24eb0edc09954a77d9,
        type: 3}
      propertyPath: m_LocalPosition.x
      value: 0
      objectReference: {fileID: 0}
    - target: {fileID: 2609624860344211152, guid: daba5c12ce75de24eb0edc09954a77d9,
        type: 3}
      propertyPath: m_LocalPosition.y
      value: 0
      objectReference: {fileID: 0}
    - target: {fileID: 2609624860344211152, guid: daba5c12ce75de24eb0edc09954a77d9,
        type: 3}
      propertyPath: m_LocalPosition.z
      value: 0
      objectReference: {fileID: 0}
    - target: {fileID: 2609624860344211152, guid: daba5c12ce75de24eb0edc09954a77d9,
        type: 3}
      propertyPath: m_LocalRotation.x
      value: -0.3968713
      objectReference: {fileID: 0}
    - target: {fileID: 2609624860344211152, guid: daba5c12ce75de24eb0edc09954a77d9,
        type: 3}
      propertyPath: m_LocalRotation.y
      value: 0.1535401
      objectReference: {fileID: 0}
    - target: {fileID: 2609624860344211152, guid: daba5c12ce75de24eb0edc09954a77d9,
        type: 3}
      propertyPath: m_LocalRotation.z
      value: -0.3257776
      objectReference: {fileID: 0}
    - target: {fileID: 2609624860344211152, guid: daba5c12ce75de24eb0edc09954a77d9,
        type: 3}
      propertyPath: m_LocalRotation.w
      value: 0.84426755
      objectReference: {fileID: 0}
    - target: {fileID: 2609624860344211152, guid: daba5c12ce75de24eb0edc09954a77d9,
        type: 3}
      propertyPath: m_RootOrder
      value: 0
      objectReference: {fileID: 0}
    - target: {fileID: 2609624860344211152, guid: daba5c12ce75de24eb0edc09954a77d9,
        type: 3}
      propertyPath: m_LocalEulerAnglesHint.x
      value: -34.757
      objectReference: {fileID: 0}
    - target: {fileID: 2609624860344211152, guid: daba5c12ce75de24eb0edc09954a77d9,
        type: 3}
      propertyPath: m_LocalEulerAnglesHint.y
      value: 39.072002
      objectReference: {fileID: 0}
    - target: {fileID: 2609624860344211152, guid: daba5c12ce75de24eb0edc09954a77d9,
        type: 3}
      propertyPath: m_LocalEulerAnglesHint.z
      value: -54.873
      objectReference: {fileID: 0}
    - target: {fileID: 2609624860344211152, guid: daba5c12ce75de24eb0edc09954a77d9,
        type: 3}
      propertyPath: m_LocalScale.y
      value: 1
      objectReference: {fileID: 0}
    - target: {fileID: 2609624860344211152, guid: daba5c12ce75de24eb0edc09954a77d9,
        type: 3}
      propertyPath: m_LocalScale.x
      value: 1
      objectReference: {fileID: 0}
    - target: {fileID: 2609624860344211152, guid: daba5c12ce75de24eb0edc09954a77d9,
        type: 3}
      propertyPath: m_LocalScale.z
      value: 1
      objectReference: {fileID: 0}
    - target: {fileID: 2609624860344211155, guid: daba5c12ce75de24eb0edc09954a77d9,
        type: 3}
      propertyPath: player
      value: 
      objectReference: {fileID: 0}
    - target: {fileID: 2609624860344211155, guid: daba5c12ce75de24eb0edc09954a77d9,
        type: 3}
      propertyPath: playerCam
      value: 
      objectReference: {fileID: 0}
    - target: {fileID: 2609624860344211155, guid: daba5c12ce75de24eb0edc09954a77d9,
        type: 3}
      propertyPath: camera
      value: 
      objectReference: {fileID: 0}
    - target: {fileID: 2609624860344211155, guid: daba5c12ce75de24eb0edc09954a77d9,
        type: 3}
      propertyPath: throwForce
      value: 200
      objectReference: {fileID: 0}
    - target: {fileID: 2609624860344211155, guid: daba5c12ce75de24eb0edc09954a77d9,
        type: 3}
      propertyPath: m_Enabled
      value: 0
      objectReference: {fileID: 0}
    - target: {fileID: 2609624860344211164, guid: daba5c12ce75de24eb0edc09954a77d9,
        type: 3}
      propertyPath: m_Materials.Array.data[0]
      value: 
      objectReference: {fileID: 2100000, guid: 2a9335107081e4344aaf8211c4ee0264, type: 2}
    - target: {fileID: 2609624860344211165, guid: daba5c12ce75de24eb0edc09954a77d9,
        type: 3}
      propertyPath: m_Enabled
      value: 0
      objectReference: {fileID: 0}
    - target: {fileID: 2762571944835302474, guid: daba5c12ce75de24eb0edc09954a77d9,
        type: 3}
      propertyPath: item
      value: 
      objectReference: {fileID: 11400000, guid: 3e959521c49479f49a482c03f0dcb51f,
        type: 2}
    m_RemovedComponents:
    - {fileID: 2600911657087276383, guid: daba5c12ce75de24eb0edc09954a77d9, type: 3}
    - {fileID: 2609624860344211155, guid: daba5c12ce75de24eb0edc09954a77d9, type: 3}
  m_SourcePrefab: {fileID: 100100000, guid: daba5c12ce75de24eb0edc09954a77d9, type: 3}
